,computer_science,management,marketing,human_resource,finance
computer_science,847,102,61,20,33
management,102,649,130,48,71
marketing,61,130,632,44,45
human_resource,20,48,44,353,25
finance,33,71,45,25,397
